{
  "log" : {
    "version" : "1.2",
    "creator" : {
      "name" : "BrowserMob Proxy",
      "version" : "2.1.5",
      "comment" : ""
    },
    "pages" : [ {
      "id" : "Page 0",
      "startedDateTime" : "2019-01-10T04:40:28.499Z",
      "title" : "Page 0",
      "pageTimings" : {
        "onLoad" : 1129,
        "comment" : ""
      },
      "comment" : ""
    } ],
    "entries" : [ {
      "pageref" : "Page 0",
      "startedDateTime" : "2019-01-10T04:40:29.440Z",
      "request" : {
        "method" : "GET",
        "url" : "https://reqres.in/api/users?page=3",
        "httpVersion" : "HTTP/1.1",
        "cookies" : [ ],
        "headers" : [ {
          "name" : "User-Agent",
          "value" : "Katalon Studio"
        }, {
          "name" : "Host",
          "value" : "reqres.in"
        }, {
          "name" : "Accept",
          "value" : "text/html, image/gif, image/jpeg, *; q=.2, */*; q=.2"
        }, {
          "name" : "Connection",
          "value" : "keep-alive"
        } ],
        "queryString" : [ {
          "name" : "page",
          "value" : "3"
        } ],
        "headersSize" : 167,
        "bodySize" : 0,
        "comment" : ""
      },
      "response" : {
        "status" : 200,
        "statusText" : "OK",
        "httpVersion" : "HTTP/1.1",
        "cookies" : [ {
          "name" : "__cfduid",
          "value" : "d8789955d27622cb80d9c1ed94bc30ec61547095228",
          "path" : "/",
          "domain" : ".reqres.in",
          "expires" : "2020-01-10T04:40:28.000Z",
          "httpOnly" : true,
          "secure" : false,
          "comment" : ""
        } ],
        "headers" : [ {
          "name" : "Date",
          "value" : "Thu, 10 Jan 2019 04:40:28 GMT"
        }, {
          "name" : "Content-Type",
          "value" : "application/json; charset=utf-8"
        }, {
          "name" : "Content-Length",
          "value" : "447"
        }, {
          "name" : "Connection",
          "value" : "keep-alive"
        }, {
          "name" : "Set-Cookie",
          "value" : "__cfduid=d8789955d27622cb80d9c1ed94bc30ec61547095228; expires=Fri, 10-Jan-20 04:40:28 GMT; path=/; domain=.reqres.in; HttpOnly"
        }, {
          "name" : "X-Powered-By",
          "value" : "Express"
        }, {
          "name" : "Access-Control-Allow-Origin",
          "value" : "*"
        }, {
          "name" : "ETag",
          "value" : "W/\"1bf-/o0Zym1Cy11R1Ekz495VXZNh7qQ\""
        }, {
          "name" : "Expect-CT",
          "value" : "max-age=604800, report-uri=\"https://report-uri.cloudflare.com/cdn-cgi/beacon/expect-ct\""
        }, {
          "name" : "Server",
          "value" : "cloudflare"
        }, {
          "name" : "CF-RAY",
          "value" : "496c773bdb1d9a52-MFE"
        } ],
        "content" : {
          "size" : 447,
          "mimeType" : "application/json; charset=utf-8",
          "text" : "{\"page\":3,\"per_page\":3,\"total\":12,\"total_pages\":4,\"data\":[{\"id\":7,\"first_name\":\"Michael\",\"last_name\":\"Lawson\",\"avatar\":\"https://s3.amazonaws.com/uifaces/faces/twitter/follettkyle/128.jpg\"},{\"id\":8,\"first_name\":\"Lindsay\",\"last_name\":\"Ferguson\",\"avatar\":\"https://s3.amazonaws.com/uifaces/faces/twitter/araa3185/128.jpg\"},{\"id\":9,\"first_name\":\"Tobias\",\"last_name\":\"Funke\",\"avatar\":\"https://s3.amazonaws.com/uifaces/faces/twitter/vivekprvr/128.jpg\"}]}",
          "comment" : ""
        },
        "redirectURL" : "",
        "headersSize" : 538,
        "bodySize" : 447,
        "comment" : ""
      },
      "cache" : { },
      "timings" : {
        "comment" : "",
        "ssl" : 849,
        "blocked" : 0,
        "send" : 1,
        "wait" : 155,
        "receive" : 22,
        "dns" : 0,
        "connect" : 885
      },
      "serverIPAddress" : "104.27.134.11",
      "comment" : "",
      "_katalonRequestInformation" : {
        "name" : "1",
        "testObjectId" : "Object Repository/REST_User/ListUsers",
        "harId" : "f7944ab0-fe17-4e32-bfe8-60143761b105"
      },
      "time" : 1066
    } ],
    "comment" : ""
  }
}